Preprocessing Experiment 2 data
…
This is the categorical analysis of Experiment 2. Start loading packages, function file and data:

library(tidyverse)  # for data processing
library(stringr)    # for data processing
library(lme4)   # for mixed models
library(afex)   # for mixed models
library(lsr)    # for calculating Cramer's V 

source('../scripts/functions.R')
source('../scripts/predict.glmm.R')

E2l <- read_csv("../data/E2_long.csv")
E2l %>% print(n = 6, width = Inf)

## # A tibble: 732 x 10
##   Subject Hand  Gender Condition TimeOrder ValenceOrder QuantityOrder
##     <int> <chr> <chr>  <chr>         <int>        <int>         <int>
## 1       1 Right Female Time              3            1             2
## 2       1 Right Female Time              3            1             2
## 3       1 Right Female Time              3            1             2
## 4       1 Right Female Time              3            1             2
## 5       2 Right Male   Time              2            3             1
## 6       2 Right Male   Time              2            3             1
##   Word         x     y
##   <chr>    <int> <int>
## 1 Earliest  -170   242
## 2 Earlier    -59   174
## 3 Later       24   123
## 4 Latest     112    55
## 5 Earliest  -119   252
## 6 Earlier   -121   266
## # ... with 726 more rows
…
E2 %>% print(n = 6, width = Inf)

## # A tibble: 183 x 10
##   Subject Hand  Gender Condition ConsistentAxis AxisChoice
##     <int> <chr> <chr>  <chr>     <chr>          <chr>     
## 1       1 Right Female Time      Yes            diagonal  
## 2       1 Right Female Quantity  Yes            vertical  
## 3       1 Right Female Valence   Yes            vertical  
## 4       2 Right Male   Time      No             horizontal
## 5       2 Right Male   Quantity  No             horizontal
## 6       2 Right Male   Valence   No             <NA>      
##   AxisChoiceDetailed           DirectionDetailed     Horizontal   
##   <chr>                        <chr>                 <chr>        
## 1 diagonal                     up-left to down-right left-to-right
## 2 vertical                     down to up            <NA>         
## 3 vertical                     down to up            <NA>         
## 4 other / primarily horizontal <NA>                  <NA>         
## 5 other / primarily horizontal <NA>                  <NA>         
## 6 other                        <NA>                  <NA>         
##   Vertical  
##   <chr>     
## 1 up-to-down
## 2 down-to-up
## 3 down-to-up
## 4 <NA>      
## 5 <NA>      
## 6 <NA>      
## # ... with 177 more rows
…
## Parsed with column specification:
## cols(
##   .default = col_character(),
##   Subject = col_integer(),
##   TimeOrder = col_integer(),
##   QuantityOrder = col_integer(),
##   ValenceOrder = col_integer()
## )

## See spec(...) for full column specifications.

E2_short %>% print(n = 6, width = Inf)

## # A tibble: 61 x 22
##   Subject Hand  Gender TimeOrder TimeAxis TimeRepresentation          
##     <int> <chr> <chr>      <int> <chr>    <chr>                       
## 1       1 Right Female         3 Yes      Diagonal                    
## 2       2 Right Male           2 No       Other / primarily horizontal
## 3       3 Right Male           2 Yes      Horizontal                  
## 4       4 Right Female         1 Yes      Vertical                    
## 5       5 Right Male           2 Yes      Horizontal                  
## 6       6 Right Female         1 Yes      Vertical                    
##   TimeConsistent TimeDirection         TimeQuadrant        QuantityOrder
##   <chr>          <chr>                 <chr>                       <int>
## 1 Yes            Up-left to down-right Up-left, down-right             2
## 2 No             n/a                   Up-left                         1
## 3 Yes            Left to right         n/a                             1
## 4 Yes            Up to down            Up-left, down-left              3
## 5 Yes            Left to right         n/a                             1
## 6 No             n/a                   n/a                             3
##   QuantityAxis QuantityRepresentation       QuantityConsistent
##   <chr>        <chr>                        <chr>             
## 1 Yes          Vertical                     Yes               
## 2 No           Other / primarily horizontal No                
## 3 Yes          Vertical                     Yes               
## 4 Yes          Vertical                     No                
## 5 Yes          Horizontal                   Yes               
## 6 Yes          Vertical                     No                
##   QuantityDirection QuantityQuadrant   ValenceOrder ValenceAxis
##   <chr>             <chr>                     <int> <chr>      
## 1 Down to up        n/a                           1 Yes        
## 2 n/a               Up-left                       3 No         
## 3 Down to up        n/a                           3 Yes        
## 4 n/a               Up-left, down-left            2 No         
## 5 Left to right     n/a                           3 Yes        
## 6 n/a               n/a                           2 Yes        
##   ValenceRepresentation ValenceConsistent ValenceDirection
##   <chr>                 <chr>             <chr>           
## 1 Vertical              Yes               Down to up      
## 2 Other                 n/a               n/a             
## 3 Vertical              Yes               Down to up      
## 4 Other / no pattern    n/a               n/a             
## 5 Horizontal            Yes               Left to right   
## 6 Vertical              No                n/a             
##   ValenceQuadrant    OverallConsistent
##   <chr>              <chr>            
## 1 n/a                No               
## 2 Up-left            No               
## 3 n/a                No               
## 4 Up-left, down-left No               
## 5 n/a                Yes              
## 6 n/a                Yes              
## # ... with 55 more rows
…
