Preprocessing Experiment 4 data
…
This is the analysis of Experiment 4. Start loading packages, function file and data:

library(tidyverse)    # for data processing
library(stringr)    # for data processing
library(lme4)   # for mixed models
library(afex)   # for mixed models
library(lsr)   # for Cramer's V

source('../scripts/functions.R')

df <- read_csv("../data/E4_processed.csv")
df %>% print(n = 6, width = Inf)

## # A tibble: 3,104 x 12
##   ID    Handedness Gender Type  ConceptOrder Resp  Axis  Pixel
##   <chr> <chr>      <chr>  <chr>        <int> <chr> <chr> <int>
## 1 S1    Right      Female N                1 2     x       237
## 2 S1    Right      Female N                1 2     y       549
## 3 S1    Right      Female N                2 4     x       528
## 4 S1    Right      Female N                2 4     y       545
## 5 S1    Right      Female N                3 7     x       234
## 6 S1    Right      Female N                3 7     y       218
##   Exp1                                                                    
##   <chr>                                                                   
## 1 I put them in order of least to most with top left being least and bott
## 2 I put them in order of least to most with top left being least and bott
## 3 I put them in order of least to most with top left being least and bott
## 4 I put them in order of least to most with top left being least and bott
## 5 I put them in order of least to most with top left being least and bott
## 6 I put them in order of least to most with top left being least and bott
##   Exp2                                                                    
##   <chr>                                                                   
## 1 I put them in order of worst to best with the top left being worst and 
## 2 I put them in order of worst to best with the top left being worst and 
## 3 I put them in order of worst to best with the top left being worst and 
## 4 I put them in order of worst to best with the top left being worst and 
## 5 I put them in order of worst to best with the top left being worst and 
## 6 I put them in order of worst to best with the top left being worst and 
##   Exp3                                                                    
##   <chr>                                                                   
## 1 I put the in order if earliest to latest with top left being earliest t
## 2 I put the in order if earliest to latest with top left being earliest t
## 3 I put the in order if earliest to latest with top left being earliest t
## 4 I put the in order if earliest to latest with top left being earliest t
## 5 I put the in order if earliest to latest with top left being earliest t
## 6 I put the in order if earliest to latest with top left being earliest t
##   Exp4                                                                    
##   <chr>                                                                   
## 1 I sort of put them in numerical order. 2 at the top left, 4 at the top 
## 2 I sort of put them in numerical order. 2 at the top left, 4 at the top 
## 3 I sort of put them in numerical order. 2 at the top left, 4 at the top 
## 4 I sort of put them in numerical order. 2 at the top left, 4 at the top 
## 5 I sort of put them in numerical order. 2 at the top left, 4 at the top 
## 6 I sort of put them in numerical order. 2 at the top left, 4 at the top 
## # ... with 3,098 more rows
…
E4cat %>% print(n = 4, width = Inf)

## # A tibble: 388 x 12
##   Subject Condition ConsistentAxis AxisChoice ChoiceDetailed        
##   <chr>   <chr>     <chr>          <chr>      <chr>                 
## 1 S1      N         no             <NA>       round                 
## 2 S1      Q         no             <NA>       round                 
## 3 S1      V         no             <NA>       round                 
## 4 S10     N         no             vertical   predominantly_vertical
##   ConsistentAxialDirection AxialDirectionDetailed AxialDirectionHorizontal
##   <chr>                    <chr>                  <chr>                   
## 1 <NA>                     <NA>                   <NA>                    
## 2 <NA>                     <NA>                   <NA>                    
## 3 <NA>                     <NA>                   <NA>                    
## 4 <NA>                     <NA>                   <NA>                    
##   AxialDirectionVertical ConsistentRoundDirection RoundDirectionDetailed
##   <chr>                  <chr>                    <chr>                 
## 1 <NA>                   no                       <NA>                  
## 2 <NA>                   no                       <NA>                  
## 3 <NA>                   no                       <NA>                  
## 4 <NA>                   <NA>                     <NA>                  
##   SameAxis
##   <chr>   
## 1 no      
## 2 no      
## 3 no      
## 4 no      
## # ... with 384 more rows
…
